17504
16704
19833
21106
22228
21666
22981
23131
21378
22265
20887
20936
21204
20852
23872
22829
23293
22801
23994
24965
23400
23645
21946
22386
22773
22554
25602
26207
28578
28403
29286
28729
27351
29544
27676
27303
25566
24982
29380
30549
31151
31862
33888
36204
36260
36557
31260
31264
30800
29253
33887
36002
39016
39126
40585
41051
34830
33208
31556
32662
30922
29762
35603
36677
41378
40481
40696
40387
37675
39425
39802
39014
38690
37616
42226
43663
48512
50085
51728
49068
45182
40625
29869
26375
26541
25620
28450
29437
32958
35945
36339
36980
34348
35025
34342
35249
34145
31888
37234
38297
39168
38208
39054
38541
37170
38480
37073
39091
38018
36669
44349
45853
48245
47514
48200
48320
45443
45115
42976
42755
41406
42218
48397
47664
49198
46483
46658
50195
47201
48983
44434
42582
41762
42229
47730
46815
49195
48486
49825
49563
46072
46517
42397
43172
42657
40679
46399
47371
50670
48714
49893
49451
46258
46248
40979
37745
33142
32288
37609
37945
42253
42879
44000
42053
37692
38138
34074
33674
31048
28987
33586
35277
38808
40062
39752
38755
37924
38978
35812
37154
35924
34210
39103
39460
41292
40493
40211
41634
41677
41964
40241
39943
38954
36879
42186
42573
47442
46750
47089
47873
44442
47071
42017
38177
36439
35514
42065
44270
47387
44876
46392
45949
42751
44348
41424
40962
39696
36963
34261
26810
32045
36314
38876
38730
37231
38161
34394
36635.
37214